{
  "appId": "vn.topship.bpp",
  "appName": "TOPSHIP",
  "bundledWebRuntime": false,
  "webDir": "www",
  "linuxAndroidStudioPath": "/usr/local/android-studio/bin/studio.sh",
  "plugins": {
    "SplashScreen": {
      "launchAutoHide": true,
      "backgroundColor": "#ffffffff",
      "androidSplashResourceName": "splash",
      "androidScaleType": "FIT_XY",
      "splashFullScreen": true,
      "splashImmersive": true
    }
  }
}
