{
  "/upload/*": {
    "target": "https://faboshop.d.etop.vn",
    "secure": false,
    "changeOrigin": true
  },
  "/api/*": {
    "target": "https://faboshop.d.etop.vn",
    "secure": false,
    "changeOrigin": true
  },
  "/dl/*": {
    "target": "https://faboshop.d.etop.vn",
    "secure": false,
    "changeOrigin": true
  }
}
