
[{
  "relation": ["delegate_permission/common.handle_all_urls"],
  "target": {
    "namespace": "android_app",
    "package_name": "vn.etop.app",
    "sha256_cert_fingerprints":
    ["C7:F9:EC:48:9F:7D:23:4F:9B:60:75:68:4F:3A:6F:60:4C:59:FB:15:95:E4:28:EF:0C:BB:2A:69:41:59:21:26"]
  }
}]
